…
Answer the following questions using these data:

How many distinct stations are there? Note that stations are identified
both by name and by line (e.g. 125th St A/B/C/D; 125st 1; 125st 4/5);
the distinct function may be useful here.

``` r
distinct(transit_df,station_name,line)
```

    ## # A tibble: 465 x 2
    ##    line     station_name            
    ##    <chr>    <chr>                   
    ##  1 4 Avenue 25th St                 
    ##  2 4 Avenue 36th St                 
    ##  3 4 Avenue 45th St                 
    ##  4 4 Avenue 53rd St                 
    ##  5 4 Avenue 59th St                 
    ##  6 4 Avenue 77th St                 
    ##  7 4 Avenue 86th St                 
    ##  8 4 Avenue 95th St                 
    ##  9 4 Avenue 9th St                  
    ## 10 4 Avenue Atlantic Av-Barclays Ctr
    ## # … with 455 more rows
…
    ## Warning in x:y: numerical expression has 10 elements: only the first used

    ## Warning in x:y: numerical expression has 11 elements: only the first used

joining the datasets

``` r
compiled_df=
left_join(pols_df,snp_df, by=c("month","year")) 

left_join(compiled_df,snp_df, by=c("month","year")) 
```

    ## # A tibble: 822 x 11
    ##    year  month president gov_gop sen_gop rep_gop gov_dem sen_dem rep_dem close.x
    ##    <chr> <chr> <chr>       <dbl>   <dbl>   <dbl>   <dbl>   <dbl>   <dbl>   <dbl>
    ##  1 1947  jan   dem            23      51     253      23      45     198      NA
    ##  2 1947  feb   dem            23      51     253      23      45     198      NA
    ##  3 1947  mar   dem            23      51     253      23      45     198      NA
    ##  4 1947  apr   dem            23      51     253      23      45     198      NA
    ##  5 1947  may   dem            23      51     253      23      45     198      NA
    ##  6 1947  jun   dem            23      51     253      23      45     198      NA
    ##  7 1947  jul   dem            23      51     253      23      45     198      NA
    ##  8 1947  aug   dem            23      51     253      23      45     198      NA
    ##  9 1947  sept  dem            23      51     253      23      45     198      NA
    ## 10 1947  oct   dem            23      51     253      23      45     198      NA
    ## # … with 812 more rows, and 1 more variable: close.y <dbl>
